…
bday_sim_results
```

    ## # A tibble: 49 × 2
    ##    bdays prob_repeat
    ##    <int>       <dbl>
    ##  1     2      0.0027
    ##  2     3      0.0074
    ##  3     4      0.0168
    ##  4     5      0.0257
    ##  5     6      0.0384
    ##  6     7      0.055 
    ##  7     8      0.0742
    ##  8     9      0.0938
    ##  9    10      0.118 
    ## 10    11      0.142 
    ## # ℹ 39 more rows
…
